%YAML 1.1
%TAG !u! tag:unity3d.com,2011:
--- !u!1 &1862268179268397647
GameObject:
  m_ObjectHideFlags: 0
  m_CorrespondingSourceObject: {fileID: 0}
  m_PrefabInstance: {fileID: 0}
  m_PrefabAsset: {fileID: 0}
  serializedVersion: 6
  m_Component:
  - component: {fileID: 2568792490597273170}
  - component: {fileID: 2802535172189061221}
  m_Layer: 0
  m_Name: GameAssets
  m_TagString: Untagged
  m_Icon: {fileID: 0}
  m_NavMeshLayer: 0
  m_StaticEditorFlags: 0
  m_IsActive: 1
--- !u!4 &2568792490597273170
Transform:
  m_ObjectHideFlags: 0
  m_CorrespondingSourceObject: {fileID: 0}
  m_PrefabInstance: {fileID: 0}
  m_PrefabAsset: {fileID: 0}
  m_GameObject: {fileID: 1862268179268397647}
  m_LocalRotation: {x: 0, y: 0, z: 0, w: 1}
  m_LocalPosition: {x: 0.81251776, y: 0.54904586, z: -12.565691}
  m_LocalScale: {x: 1, y: 1, z: 1}
  m_Children: []
  m_Father: {fileID: 0}
  m_RootOrder: 0
  m_LocalEulerAnglesHint: {x: 0, y: 0, z: 0}
--- !u!114 &2802535172189061221
MonoBehaviour:
  m_ObjectHideFlags: 0
  m_CorrespondingSourceObject: {fileID: 0}
  m_PrefabInstance: {fileID: 0}
  m_PrefabAsset: {fileID: 0}
  m_GameObject: {fileID: 1862268179268397647}
  m_Enabled: 1
  m_EditorHideFlags: 0
  m_Script: {fileID: 11500000, guid: 218dbacec61a0bd4e93b2c6d3d6135f6, type: 3}
  m_Name: 
  m_EditorClassIdentifier: 
  dontDestroyOnLoad: 0
  tower1: {fileID: 11400000, guid: fb013b69b2036b84ca4e7ab8ddf2ffa7, type: 2}
  tower2: {fileID: 11400000, guid: 0c4b6a875d4908b4b9c4d38e83c29ead, type: 2}
  tower3: {fileID: 11400000, guid: c6194e5d8e152a24bb0122f1d7147908, type: 2}
  tower4: {fileID: 11400000, guid: a7d82467cff0f4e4b947f1c0b0e8d832, type: 2}
  buildMenuPrefab: {fileID: 5135932080941546578, guid: 78b7e45c5adbed647876a9bd6a618905,
    type: 3}
  bulletPrefab: {fileID: 279455349387392960, guid: 0223b09934d4a074bac1b406d6111e89,
    type: 3}
  healthBar: {fileID: 6017450568067085153, guid: e19dc921f77a2c041902dc1c7d43114e,
    type: 3}
  defaultSprite: {fileID: 5206372450948694970, guid: aa62e9807a39b4b4ca971a50a90d02e3,
    type: 3}
  enemyDatas:
  - {fileID: 11400000, guid: 5bb43885e55389d4687d21ca6b49593c, type: 2}
  - {fileID: 11400000, guid: 777915588e766ce43b50171ae80d56a1, type: 2}
  - {fileID: 11400000, guid: 6808fdc437cdf074f8184e9dba6cda01, type: 2}
