%YAML 1.1
%TAG !u! tag:unity3d.com,2011:
--- !u!114 &11400000
MonoBehaviour:
  m_ObjectHideFlags: 0
  m_CorrespondingSourceObject: {fileID: 0}
  m_PrefabInstance: {fileID: 0}
  m_PrefabAsset: {fileID: 0}
  m_GameObject: {fileID: 0}
  m_Enabled: 1
  m_EditorHideFlags: 0
  m_Script: {fileID: 11500000, guid: 311d7b822f8436040bf6b5b47a5bd3ba, type: 3}
  m_Name: tower3
  m_EditorClassIdentifier: 
  settings:
    Icon: {fileID: 4284795079053747444, guid: aa62e9807a39b4b4ca971a50a90d02e3, type: 3}
    prefab: {fileID: 1452849740727057090, guid: 38529296047cc6948aca57d0fa9941bc,
      type: 3}
    price: 300
    damage: 10
    range: 4
    reload: 1
